{
  "AssumedRoleUser": {
    "Arn": "arn:aws:sts::123456789012:assumed-role/role1",
    "AssumedRoleId": "ABCDEFGHIJKLMNOPQRSTU:123456789"

  },
  "Audience": "https://signin.aws.amazon.com/saml",
  "Credentials": {
    "AccessKeyId": "XXXXXXXXXXXXXXXXXX",
    "Expiration": "2018-10-03 18:42:57 +0000 UTC",
    "SecretAccessKey": "xxxxxxxxxxxxxxxxxx",
    "SessionToken": "xxxxxxxxxxxxxxxxxx"
  },
  "Issuer": "anissuer",
  "NameQualifier": "namequalifier",
  "Subject": "subject@company.com",
  "SubjectType": "urn:oasis:names:tc:SAML:2.0:attrname-format:persistent"
}
